<svg xmlns="http://www.w3.org/2000/svg" viewBox="0 0 290.62 418.17">
    <title>logo</title>
    <g id="Слой_2" data-name="Слой 2">
        <g id="Layer_1" data-name="Layer 1">
            <path class="cls-1"
                  d="M290.12,25.89,245.72.13a1,1,0,0,0-1,0L.5,141.78a1,1,0,0,0,0,1.73l44.4,25.75a1,1,0,0,0,1,0L290.12,27.62a1,1,0,0,0,0-1.73ZM45.4,167.24,3,142.64,245.21,2.16l42.41,24.6Zm185.07-19.47a1,1,0,0,0-.5-.87l-44.4-25.75a1,1,0,0,0-1,0L95.76,172.66a1,1,0,0,0,0,1.73l20.71,12-20.71,12a1,1,0,0,0,0,1.73l20.71,12-20.71,12a1,1,0,0,0,0,1.73l20.71,12-20.71,12a1,1,0,0,0,0,1.73l20.71,12-20.71,12a1,1,0,0,0,0,1.73l20.71,12-20.71,12a1,1,0,0,0,0,1.73l44.4,25.75a1,1,0,0,0,1,0L230,277.4a1,1,0,0,0,0-1.73l-20.71-12,20.71-12a1,1,0,0,0,0-1.73l-20.71-12,20.71-12a1,1,0,0,0,0-1.73l-20.71-12,20.71-12a1,1,0,0,0,0-1.73l-20.71-12,20.71-12a1,1,0,0,0,0-1.73l-20.71-12,20.71-12A1,1,0,0,0,230.47,147.77ZM98.26,199.27l20.21-11.72,20.21,11.72L118.47,211Zm86.31,50.64h0l-43.9,25.46-20.21-11.72,64.61-37.47,20.21,11.72Zm.5,2,20.21,11.72-64.61,37.47-20.21-11.72,20.71-12h0Zm-44.4-2.31L120.46,237.9l20.71-12h0l43.9-25.46,20.21,11.72Zm43.9-51.22h0l-43.9,25.46-20.21-11.72,64.61-37.47,20.21,11.72Zm-43.9-.29L120.46,186.4l64.61-37.47,20.21,11.72ZM98.26,225l20.21-11.72L138.67,225l-20.21,11.72Zm0,25.75,20.21-11.72,20.21,11.72L118.47,262.5Zm0,25.75,20.21-11.72,20.21,11.72-20.21,11.72Zm129.22,0-86.81,50.35-42.41-24.6,20.21-11.72,21.7,12.59a1,1,0,0,0,1,0l66.1-38.34Zm0-25.75L207.27,262.5l-20.21-11.72,20.21-11.72Zm0-25.75-20.21,11.72L187.07,225l20.21-11.72Zm0-25.75L207.27,211l-20.21-11.72,20.21-11.72Zm0-25.75-20.21,11.72-20.21-11.72,20.21-11.72Zm-20.21-14-21.7-12.59a1,1,0,0,0-1,0l-66.1,38.34L98.26,173.52l86.81-50.35,42.41,24.6Z"/>
            <path class="cls-1"
                  d="M101.38,395.62h-5v-2.1L107.15,382h.26v8.13h8.65v5.51h-8.65v12.32c0,3.15,1.84,4.72,4.19,4.72a5.86,5.86,0,0,0,4.46-2.1h.79v5.24a9.71,9.71,0,0,1-6.55,2.36c-5.24,0-8.91-3.67-8.91-10Z"/>
            <path class="cls-1"
                  d="M148.65,403.12v1.94H126.89c.52,4.2,3.67,7.6,9.44,7.6,6.55,0,9.7-3.41,9.7-3.41h.79V415s-3.93,3.15-11.17,3.15c-8.49,0-14.52-6-14.52-14.42a14.16,14.16,0,0,1,14.16-14.42C143.4,389.33,148.65,394.58,148.65,403.12Zm-21.5-2.78h15.73c-.52-2.88-2.88-5.51-7.34-5.51A8.67,8.67,0,0,0,127.15,400.34Z"/>
            <path class="cls-1" d="M161.37,417.39h-6V377.53h6Z"/>
            <path class="cls-1"
                  d="M178.14,418.17a17,17,0,0,1-10.49-3.41l1.83-5a15.65,15.65,0,0,0,8.92,2.88c3.67,0,5.24-1.31,5.24-3.15,0-5.24-15.47-1.83-15.47-12.06,0-4.46,3.67-8.13,10-8.13A15.13,15.13,0,0,1,188.36,393L186,397.51a10.75,10.75,0,0,0-7.34-2.67c-2.88,0-4.19,1-4.19,2.88,0,4.46,15.21,1.57,15.21,12.06C189.67,414.76,186.26,418.17,178.14,418.17Z"/>
            <path class="cls-1"
                  d="M198.79,377.53a3.54,3.54,0,1,1-3.51,3.57A3.38,3.38,0,0,1,198.79,377.53Zm3,39.85h-6V389.86a8.93,8.93,0,0,0,3,.52,9,9,0,0,0,3-.52Z"/>
            <path class="cls-1"
                  d="M218.51,418.17A17,17,0,0,1,208,414.76l1.83-5a15.65,15.65,0,0,0,8.92,2.88c3.67,0,5.24-1.31,5.24-3.15,0-5.24-15.47-1.83-15.47-12.06,0-4.46,3.67-8.13,10-8.13A15.13,15.13,0,0,1,228.74,393l-2.36,4.51a10.75,10.75,0,0,0-7.34-2.67c-2.88,0-4.19,1-4.19,2.88,0,4.46,15.21,1.57,15.21,12.06C230,414.76,226.64,418.17,218.51,418.17Z"/>
        </g>
    </g>
</svg>